{
  "_cleanStack.Config": {
    "link": "https://gitlab.com/artdeco/clean-stack#type-config",
    "description": "Options for the program."
  },
  "_cleanStack.cleanStack": {
    "link": "https://gitlab.com/artdeco/clean-stack#cleanstackstack-stringoptions-config-string",
    "description": "Remove internal Node.JS lines from the error stack traces."
  }
}