
<svg xmlns="http://www.w3.org/2000/svg" version="1.1" xmlns:xlink="http://www.w3.org/1999/xlink" preserveAspectRatio="none" x="0px" y="0px" width="112px" height="46px" viewBox="0 0 112 46">
<defs>
<g id="Layer0_0_MEMBER_0_MEMBER_0_MEMBER_0_FILL">
<path fill="#663366" stroke="none" d="
M 1090.65 907.85
L 1090.95 906.35 1086.55 906.35 1084.7 914.15 1086.35 914.15 1087.05 911.1 1089.7 911.1 1090.05 909.8 1087.4 909.8 1087.85 907.85 1090.65 907.85 Z"/>
</g>

<g id="Layer0_0_MEMBER_0_MEMBER_1_MEMBER_0_FILL">
<path fill="#663366" stroke="none" d="
M 1094.9 908.55
L 1094.6 908.5
Q 1093.6 908.5 1092.8 909.8
L 1092.75 909.8 1092.9 908.75 1091.55 908.75 1090.35 914.15 1091.95 914.15 1092.45 912.1
Q 1092.9 910.05 1094.25 910.05
L 1094.5 910.1 1094.9 908.55 Z"/>
</g>

<g id="Layer0_0_MEMBER_0_MEMBER_2_MEMBER_0_FILL">
<path fill="#663366" stroke="none" d="
M 1097.6 912.85
Q 1096.9 912.85 1096.55 912.6 1096.35 912.3 1096.45 912 1099.95 912.1 1100.1 910.15 1100.15 909.4 1099.6 908.95 1099.1 908.5 1098.25 908.5 1096.8 908.5 1095.85 909.6 1094.95 910.6 1094.9 911.95 1094.75 914.15 1097.15 914.15 1098.4 914.15 1099.2 913.9
L 1099.15 912.7
Q 1098.8 912.85 1097.6 912.85
M 1098 909.8
Q 1098.55 909.8 1098.55 910.15 1098.55 910.5 1098.05 910.6 1097.7 910.7 1096.65 910.7 1096.95 909.8 1098 909.8 Z"/>
</g>

<g id="Layer0_0_MEMBER_0_MEMBER_3_MEMBER_0_FILL">
<path fill="#663366" stroke="none" d="
M 1100.65 911.95
Q 1100.5 914.15 1102.9 914.15 1104.15 914.15 1104.95 913.9
L 1104.9 912.7
Q 1104.55 912.85 1103.35 912.85 1102.65 912.85 1102.3 912.6 1102.15 912.4 1102.15 912 1105.75 912.1 1105.8 910.15 1105.85 909.4 1105.35 908.95 1104.85 908.5 1104 908.5 1102.55 908.5 1101.6 909.6 1100.7 910.6 1100.65 911.95
M 1103.75 909.8
Q 1104.3 909.8 1104.3 910.15 1104.3 910.5 1103.8 910.6 1103.45 910.7 1102.4 910.7 1102.6 909.8 1103.75 909.8 Z"/>
</g>

<g id="Layer0_0_MEMBER_0_MEMBER_4_MEMBER_0_FILL">
<path fill="#663366" stroke="none" d="
M 1111.75 914.15
L 1113.25 914.15
Q 1113.25 913.4 1113.6 911.65
L 1114.3 908.75
Q 1113.55 908.5 1112.5 908.5 1110.6 908.5 1109.5 909.75 1108.5 910.8 1108.4 912.4 1108.35 914.15 1109.95 914.15 1111.15 914.15 1111.85 912.9
L 1111.9 912.9 1111.75 914.15
M 1112.45 909.75
L 1112.15 911.05
Q 1111.75 912.85 1110.7 912.85 1110 912.85 1110.1 912.05 1110.15 911.2 1110.7 910.55 1111.25 909.8 1112 909.8
L 1112.45 909.75 Z"/>
</g>

<g id="Layer0_0_MEMBER_0_MEMBER_5_MEMBER_0_FILL">
<path fill="#663366" stroke="none" d="
M 1117.65 908.5
Q 1116.6 908.5 1115.9 909 1115.2 909.55 1115.15 910.4 1115.1 911.25 1116.25 911.9 1116.9 912.25 1116.9 912.6 1116.85 912.8 1116.7 912.85 1116.65 912.85 1116.2 912.85
L 1114.75 912.75 1114.3 913.9
Q 1114.65 914.15 1115.95 914.15 1117.05 914.15 1117.8 913.7 1118.55 913.2 1118.6 912.35 1118.6 911.45 1117.45 910.8 1116.8 910.5 1116.8 910.15 1116.8 909.8 1117.55 909.8
L 1118.6 909.9 1119.05 908.75
Q 1118.65 908.5 1117.65 908.5 Z"/>
</g>

<g id="Layer0_0_MEMBER_0_MEMBER_6_MEMBER_0_FILL">
<path fill="#663366" stroke="none" d="
M 1121.35 914.15
L 1122.95 914.15 1124.25 908.75 1122.65 908.75 1121.35 914.15
M 1123.15 907.75
Q 1123.4 908.1 1123.7 908.1 1124.7 908.1 1124.8 906.85 1124.8 906.15 1123.95 906.15 1123.55 906.15 1123.25 906.4 1122.95 906.65 1122.9 907 1122.9 907.4 1123.15 907.75 Z"/>
</g>

<g id="Layer0_0_MEMBER_0_MEMBER_7_MEMBER_0_FILL">
<path fill="#663366" stroke="none" d="
M 1127.15 908.75
L 1125.7 908.75 1124.45 914.15 1126.05 914.15 1126.6 911.7
Q 1127 910.05 1128.1 910.05 1128.6 910.05 1128.6 910.45
L 1127.8 914.15 1129.4 914.15 1130.15 910.95
Q 1130.3 910.5 1130.3 910 1130.35 908.65 1128.95 908.65 1127.85 908.65 1127 909.7
L 1127.15 908.75 Z"/>
</g>

<g id="Layer0_0_MEMBER_0_MEMBER_8_MEMBER_0_FILL">
<path fill="#663366" stroke="none" d="
M 1139.25 906.35
L 1134.8 906.35 1133 914.15 1134.6 914.15 1135.35 911.1 1137.95 911.1 1138.3 909.8 1135.65 909.8 1136.1 907.85 1138.9 907.85 1139.25 906.35 Z"/>
</g>

<g id="Layer0_0_MEMBER_0_MEMBER_9_MEMBER_0_FILL">
<path fill="#663366" stroke="none" d="
M 1143.2 908.55
L 1142.9 908.5
Q 1141.8 908.5 1141.1 909.8
L 1141.05 909.8 1141.2 908.75 1139.8 908.75 1138.6 914.15 1140.25 914.15 1140.75 912.1
Q 1141.2 910.05 1142.55 910.05
L 1142.8 910.1 1143.2 908.55 Z"/>
</g>

<g id="Layer0_0_MEMBER_0_MEMBER_10_MEMBER_0_FILL">
<path fill="#663366" stroke="none" d="
M 1147.9 908.95
Q 1147.4 908.5 1146.55 908.5 1145.1 908.5 1144.15 909.6 1143.25 910.6 1143.15 911.95 1143.1 914.15 1145.45 914.15 1146.7 914.15 1147.5 913.9
L 1147.45 912.7
Q 1147.1 912.85 1145.9 912.85 1145.2 912.85 1144.85 912.6 1144.7 912.4 1144.7 912 1148.3 912.1 1148.35 910.15 1148.4 909.4 1147.9 908.95
M 1146.35 910.6
Q 1146 910.7 1144.95 910.7 1145.15 909.8 1146.25 909.8 1146.85 909.8 1146.85 910.15 1146.8 910.5 1146.35 910.6 Z"/>
</g>

<g id="Layer0_0_MEMBER_0_MEMBER_11_MEMBER_0_FILL">
<path fill="#663366" stroke="none" d="
M 1153.65 908.95
Q 1153.15 908.5 1152.3 908.5 1150.85 908.5 1149.9 909.6 1149 910.6 1148.9 911.95 1148.85 914.15 1151.15 914.15 1152.45 914.15 1153.25 913.9
L 1153.2 912.7
Q 1152.85 912.85 1151.6 912.85 1150.95 912.85 1150.6 912.6 1150.45 912.4 1150.45 912 1154.05 912.1 1154.1 910.15 1154.15 909.4 1153.65 908.95
M 1152 909.8
Q 1152.6 909.8 1152.6 910.15 1152.55 910.7 1150.65 910.7 1150.95 909.8 1152 909.8 Z"/>
</g>

<g id="Layer0_0_MEMBER_0_MEMBER_12_MEMBER_0_FILL">
<path fill="#663366" stroke="none" d="
M 1161.2 906.15
L 1159.6 906.15 1159 908.6
Q 1158.75 908.5 1158.25 908.5 1156.75 908.5 1155.7 909.65 1154.7 910.7 1154.6 912.2 1154.55 914.15 1156.2 914.15 1157.35 914.15 1158.05 913.1
L 1158.1 913.1 1157.95 914.15 1159.45 914.15
Q 1159.5 913.35 1159.8 912
L 1161.2 906.15
M 1158.7 909.9
L 1158.35 911.4
Q 1158 912.85 1157 912.85 1156.3 912.85 1156.3 911.95 1156.35 911.1 1156.85 910.45 1157.35 909.8 1158.05 909.8
L 1158.7 909.9 Z"/>
</g>

<g id="Layer0_0_MEMBER_0_MEMBER_13_MEMBER_0_FILL">
<path fill="#663366" stroke="none" d="
M 1161.05 912
Q 1160.95 914.15 1163.3 914.15 1164.7 914.15 1165.65 913.2 1166.65 912.25 1166.7 910.8 1166.8 909.8 1166.2 909.15 1165.6 908.5 1164.5 908.5 1163.05 908.5 1162.1 909.55 1161.15 910.55 1161.05 912
M 1163.15 910.55
Q 1163.6 909.8 1164.2 909.8 1165.05 909.8 1165.05 910.8 1165 911.55 1164.6 912.2 1164.15 912.85 1163.55 912.85 1162.7 912.85 1162.7 911.95 1162.75 911.2 1163.15 910.55 Z"/>
</g>

<g id="Layer0_0_MEMBER_0_MEMBER_14_MEMBER_0_FILL">
<path fill="#663366" stroke="none" d="
M 1176.05 909.95
Q 1176.15 908.5 1174.8 908.5 1173.7 908.5 1172.85 909.55 1172.85 908.5 1171.6 908.5 1170.45 908.5 1169.7 909.55
L 1169.65 909.55 1169.8 908.75 1168.4 908.75 1167.15 914.15 1168.75 914.15 1169.3 911.65
Q 1169.5 910.85 1169.9 910.3 1170.3 909.8 1170.7 909.8 1171.2 909.8 1171.2 910.5
L 1171.1 911.1 1170.35 914.15 1171.95 914.15 1172.5 911.65
Q 1173 909.8 1173.9 909.8 1174.4 909.8 1174.4 910.45
L 1174.3 911.15 1173.6 914.15 1175.15 914.15 1175.9 910.95
Q 1176.05 910.5 1176.05 909.95 Z"/>
</g>

<g id="Layer0_0_MEMBER_1_MEMBER_0_FILL">
<path fill="#FFFFFF" fill-opacity="0" stroke="none" d="
M 1189.25 869.3
Q 1185.8 869.6 1182.5 871.2
L 1153.35 899.6 1153.65 900.3 1154.15 901.15
Q 1155.65 903.25 1159.2 903.55
L 1161.65 903.55
Q 1162.8 903.5 1164.05 903.25 1166.15 902.8 1168.55 901.95 1170.7 901.15 1172.25 900.4 1176.3 898.45 1180.5 895.4
L 1185.35 891.4
Q 1188.3 888.55 1189.6 885.9 1191 883.15 1189.95 881.7 1189.3 880.9 1187.8 880.75 1191.05 878.3 1192.65 875.7 1194.3 873.05 1193.65 871.25 1193.25 870.05 1191.85 869.6 1191.25 869.35 1190.55 869.3
L 1189.25 869.3 Z"/>
</g>

<g id="Layer0_0_MEMBER_2_FILL">
<path fill="#663366" stroke="none" d="
M 1167.35 878.15
Q 1169.45 876.65 1170.55 876 1176.55 872.25 1181.85 870.95 1176.65 872.6 1171.15 876.35
L 1170.75 876.6
Q 1167.7 878.75 1165.25 881.05 1161.3 884.75 1159.5 888.2 1157.6 891.75 1158.55 893.95
L 1158.9 894.5
Q 1159.85 895.95 1162.25 896.25 1164.5 896.55 1167.75 895.75
L 1168.6 895.5
Q 1170.3 895.05 1172.85 893.95
L 1174 893.45
Q 1177.45 891.7 1179.95 889.9 1182.4 888.1 1183 886.9 1183.25 886.35 1183.1 886 1182.7 885.2 1180.1 885.65 1177.55 886.15 1174 887.65
L 1172.9 888.15 1178.25 884.1
Q 1181.3 881.8 1183 879.65 1184.55 877.6 1184.2 876.75 1184.1 876.45 1183.65 876.3 1182.35 875.85 1179.2 877.15 1176.75 878.15 1173.8 880.05
L 1173.55 880.2 1173.5 880.2 1172.6 880.8 1173.15 879.85
Q 1174.25 877.8 1176.75 875.6 1178.6 874 1180.6 872.85
L 1183.85 871.25
Q 1187.2927734375 869.90078125 1188.25 869.75
L 1184.55 870.15 1094.2 870.15 1086.65 903 1159.45 903
Q 1156.1 902.75 1154.55 900.7 1154.3 900.4 1154.1 899.9
L 1153.85 899.25
Q 1153.55 898.4 1153.55 896.95 1153.7 893.6 1156.6 889.15 1159.65 884.45 1164.9 880.1
L 1167.35 878.15
M 1141.6 874.8
Q 1142.15 875.2 1142 875.8
L 1140.15 884.3
Q 1140 884.95 1139.25 885.3 1138.45 885.7 1137.5 885.7
L 1130.2 885.7 1128.55 893.15 1125.8 893.15 1129.9 874.4 1140 874.4
Q 1140.95 874.4 1141.6 874.8
M 1151.05 887.95
L 1150.85 885.45
Q 1150.3 876.4 1152.85 870.2 1152.5 875.55 1154.7 883.45 1155.2 885.35 1155.55 886.3
L 1156.1 888.05 1155.75 888.6
Q 1153.1 892.7 1152.7 896.15 1151.45 891.95 1151.05 887.95
M 1143.85 874.4
L 1146.6 874.4 1142.8 891.65 1149.4 891.65 1149.65 893.15 1139.7 893.15 1143.85 874.4
M 1135.45 896.65
L 1136.2 896.65 1136.15 896.8 1136.25 896.7 1136.55 896.6 1136.65 896.6
Q 1137 896.6 1137.2 896.75
L 1137.3 896.85 1136.9 897.55 1136.8 897.45 1136.55 897.35 1136.3 897.45
Q 1136.2 897.5 1136.1 897.7
L 1135.9 898.25 1135.5 899.9 1134.75 899.9 1135.45 896.65
M 1138.9 896.6
L 1139.05 896.6
Q 1139.7 896.6 1140.05 897.05 1140.25 897.45 1140.25 897.8
L 1140.1 898.55 1137.9 898.55 1137.9 898.65
Q 1137.9 898.85 1138 899.05
L 1138.1 899.15
Q 1138.2 899.3 1138.45 899.3 1138.7 899.3 1138.9 899.15 1139.15 899 1139.25 898.75
L 1140.1 898.75 1140 898.95
Q 1139.75 899.45 1139.35 899.7 1138.85 899.95 1138.35 899.95 1137.7 899.95 1137.3 899.5 1137 899.05 1137.15 898.25 1137.4 897.35 1137.85 897.05 1138.3 896.6 1138.9 896.6
M 1134.05 899.7
L 1134.1 899.9 1133.35 899.9 1133.3 899.8 1133.3 899.65 1132.85 899.85
Q 1132.65 899.95 1132.2 899.95 1131.65 899.95 1131.4 899.7 1131.25 899.5 1131.25 899.2
L 1131.25 898.95 1131.45 898.5
Q 1131.55 898.35 1131.85 898.15
L 1132.25 898 1133.6 897.75 1133.6 897.7
Q 1133.7 897.5 1133.6 897.4
L 1133.55 897.35
Q 1133.5 897.3 1133.15 897.3 1132.8 897.3 1132.7 897.4 1132.55 897.5 1132.4 897.75
L 1131.55 897.75 1131.65 897.6
Q 1131.8 897.15 1132 897.05 1132.3 896.75 1132.55 896.7
L 1133.15 896.6 1133.3 896.6
Q 1133.8 896.6 1133.95 896.7 1134.15 896.75 1134.35 896.95
L 1134.45 897.4 1134.2 898.55
Q 1134.05 899.1 1134.05 899.4
L 1134.05 899.7
M 1110.25 874.3
L 1113.2 874.3 1108.85 893.05 1106.4 893.05 1107.65 887.65 1100.05 887.65 1094.85 893.05 1092.1 893.05 1110.25 874.3
M 1125.5 874.4
Q 1126.45 874.4 1127.1 874.8 1127.65 875.2 1127.5 875.8
L 1126.55 880.1 1123.75 880.1 1124.65 875.9 1117.6 875.9 1114.15 891.65 1121.2 891.65 1121.2 891.6 1122.6 885.2 1119.3 885.2 1119.6 883.8 1125.75 883.8 1124 891.75 1123.85 892.05
Q 1123.65 892.45 1123.1 892.75 1122.4 893.15 1121.35 893.15
L 1113.35 893.15
Q 1112.4 893.15 1111.75 892.75 1111.2 892.35 1111.35 891.75
L 1114.85 875.8
Q 1115 875.15 1115.75 874.8
L 1115.8 874.8
Q 1116.4 874.5 1117.35 874.4
L 1125.5 874.4
M 1130.7 896.65
L 1131.5 896.65 1129.75 899.9 1129.05 899.9 1128.95 898.05 1128.05 899.9 1127.3 899.9 1127.05 896.65 1127.85 896.65 1127.95 898.6 1128 898.45 1128.9 896.65 1129.65 896.65 1129.7 898.55 1130.7 896.65
M 1125.4 895.5
L 1125.55 895.5 1125.3 896.15 1125.25 896.2 1124.9 896.2 1124.65 896.25 1124.6 896.3 1124.5 896.55 1124.5 896.65 1125.05 896.65 1124.9 897.3 1124.35 897.3 1123.8 899.9 1123 899.9 1123.55 897.3 1123.1 897.3 1123.25 896.65 1123.7 896.65 1123.9 895.95
Q 1124 895.8 1124.3 895.6 1124.55 895.45 1124.8 895.45
L 1124.9 895.45 1125.4 895.5
M 1125.75 895.95
L 1126.4 895.65 1126.65 895.5 1126.4 896.65 1126.9 896.65 1126.75 897.3 1126.25 897.3 1125.85 899.15 1125.85 899.2 1125.95 899.2 1126.3 899.15 1126.25 899.75 1126.3 899.9 1125.75 899.95 1125.25 899.85 1125.05 899.5 1125.05 899.4 1125.1 898.85 1125.45 897.3 1125.1 897.3 1125.25 896.65 1125.6 896.65 1125.75 895.95
M 1120.3 896.95
Q 1120.85 896.6 1121.25 896.6
L 1121.4 896.6
Q 1122.1 896.6 1122.4 897.05 1122.75 897.5 1122.6 898.25 1122.45 898.9 1122.2 899.2 1121.85 899.65 1121.5 899.75 1121.15 899.95 1120.7 899.95 1120 899.95 1119.7 899.5 1119.45 899.15 1119.45 898.75
L 1119.55 898.25
Q 1119.7 897.3 1120.3 896.95
M 1119.1 896.1
Q 1119.25 896.35 1119.15 896.85
L 1119.15 896.95 1118.35 896.95 1118.35 896.85
Q 1118.35 896.5 1118.25 896.4
L 1118.25 896.35 1118.15 896.3 1117.65 896.2
Q 1117.25 896.2 1117 896.35 1116.75 896.5 1116.7 896.7 1116.7 896.85 1116.8 896.95 1116.95 897.1 1117.45 897.2 1118 897.3 1118.35 897.5 1118.7 897.7 1118.85 897.95 1118.95 898.35 1118.9 898.65 1118.8 899 1118.5 899.3 1118.35 899.5 1117.85 899.8 1117.4 899.95 1116.95 899.95 1116.4 899.95 1116 899.8 1115.55 899.55 1115.45 899.25 1115.3 898.9 1115.4 898.4
L 1115.4 898.3 1116.2 898.3 1116.2 898.4
Q 1116.15 898.65 1116.25 898.85 1116.35 899.05 1116.5 899.1
L 1117.05 899.2 1117.55 899.1
Q 1117.85 899 1117.9 898.9
L 1118.1 898.6 1118.05 898.35 1117.8 898.2 1117.15 898
Q 1116.55 897.85 1116.4 897.7 1116.15 897.55 1115.95 897.3 1115.9 897 1115.95 896.7 1116 896.35 1116.25 896.05 1116.6 895.75 1116.95 895.6 1117.25 895.45 1117.65 895.45
L 1117.75 895.45
Q 1118.25 895.45 1118.6 895.6 1118.95 895.75 1119.1 896.1
M 1110.6 897.05
Q 1111.05 896.6 1111.65 896.6
L 1111.8 896.6
Q 1112.45 896.6 1112.8 897.05 1113 897.45 1113 897.8
L 1112.95 898.3 1112.85 898.55 1110.65 898.55 1110.65 898.75 1110.75 899.05 1110.8 899.1
Q 1111 899.3 1111.2 899.3 1111.45 899.3 1111.65 899.15 1111.9 899 1112 898.75
L 1112.85 898.75 1112.75 898.95
Q 1112.5 899.45 1112.1 899.7 1111.7 899.95 1111.15 899.95 1110.45 899.95 1110.05 899.5 1109.85 899.1 1109.85 898.75
L 1109.85 898.6 1109.9 898.25
Q 1110.15 897.35 1110.6 897.05
M 1104.75 895.5
L 1104.6 896.3 1102.35 896.3 1102.15 897.3 1104.05 897.3 1103.9 898.05 1101.95 898.05 1101.55 899.9 1100.75 899.9 1101.7 895.5 1104.75 895.5
M 1105.8 896.6
L 1105.9 896.6
Q 1106.15 896.6 1106.45 896.75
L 1106.55 896.85 1106.15 897.55 1106 897.45 1105.75 897.35 1105.5 897.45 1105.3 897.7 1105.1 898.25 1104.75 899.9 1103.95 899.9 1104.65 896.65 1105.4 896.65 1105.35 896.8 1105.45 896.7 1105.8 896.6
M 1107.1 897.05
Q 1107.55 896.6 1108.1 896.6
L 1108.25 896.6
Q 1108.95 896.6 1109.25 897.05 1109.45 897.3 1109.45 897.8
L 1109.4 898.3 1109.35 898.55 1107.15 898.55 1107.15 898.65
Q 1107.15 898.95 1107.25 899.05
L 1107.35 899.2 1107.7 899.3
Q 1107.95 899.3 1108.15 899.15
L 1108.5 898.75 1109.3 898.75 1109.25 898.95
Q 1109.05 899.35 1108.6 899.7 1108.1 899.95 1107.6 899.95 1106.85 899.95 1106.55 899.5 1106.25 899.05 1106.4 898.25 1106.55 897.45 1107.1 897.05
M 1108.2 897.25
L 1108.15 897.25
Q 1108 897.25 1107.6 897.45
L 1107.35 897.85 1108.7 897.85 1108.7 897.8 1108.6 897.5
Q 1108.5 897.25 1108.2 897.25
M 1111.7 897.25
L 1111.65 897.25
Q 1111.45 897.25 1111.15 897.45 1111.1 897.5 1110.85 897.85
L 1112.2 897.85 1112.2 897.8 1112.15 897.5 1112.1 897.4
Q 1111.95 897.25 1111.7 897.25
M 1121.8 898.25
Q 1121.9 897.7 1121.75 897.5 1121.6 897.3 1121.3 897.3
L 1121.2 897.3
Q 1121 897.3 1120.7 897.5 1120.45 897.75 1120.3 898.3
L 1120.25 898.7 1120.35 899.05 1120.4 899.15
Q 1120.55 899.3 1120.8 899.3 1121.05 899.3 1121.4 899.05 1121.65 898.8 1121.8 898.25
M 1101.9 885.7
L 1108.1 885.7 1109.25 881
Q 1110 878 1110.6 876.35 1109.2 878.1 1107.2 880.15
L 1101.9 885.7
M 1133.45 898.45
L 1132.75 898.6
Q 1132.45 898.6 1132.35 898.7
L 1132.15 898.8 1132.05 899 1132.05 899.15 1132.1 899.2
Q 1132.2 899.3 1132.4 899.3
L 1132.9 899.2
Q 1133.2 899 1133.25 898.85 1133.35 898.8 1133.45 898.45
M 1138.4 897.45
L 1138.1 897.85 1139.45 897.85 1139.45 897.8 1139.4 897.5
Q 1139.25 897.25 1138.95 897.25 1138.7 897.25 1138.4 897.45
M 1137.4 884.2
L 1139.2 875.9 1132.35 875.9 1130.5 884.2 1137.4 884.2 Z"/>
</g>

<path id="Layer0_0_MEMBER_1_MEMBER_1_1_STROKES" stroke="#663266" stroke-width="3.25" stroke-linejoin="miter" stroke-linecap="butt" stroke-miterlimit="4" fill="none" d="
M 1153.35 899.6
L 1153.65 900.3 1154.15 901.15
Q 1155.65 903.25 1159.2 903.55
L 1161.65 903.55
Q 1162.8 903.5 1164.05 903.25 1166.15 902.8 1168.55 901.95 1170.7 901.15 1172.25 900.4 1176.3 898.45 1180.5 895.4
L 1185.35 891.4
Q 1188.3 888.55 1189.6 885.9 1191 883.15 1189.95 881.7 1189.3 880.9 1187.8 880.75 1191.05 878.3 1192.65 875.7 1194.3 873.05 1193.65 871.25 1193.25 870.05 1191.85 869.6 1191.25 869.35 1190.55 869.3
L 1189.25 869.3
Q 1185.8 869.6 1182.5 871.2"/>
</defs>

<g transform="matrix( 1, 0, 0, 1, -1084.7,-867.7) ">
<use xlink:href="#Layer0_0_MEMBER_0_MEMBER_0_MEMBER_0_FILL"/>
</g>

<g transform="matrix( 1, 0, 0, 1, -1084.7,-867.7) ">
<use xlink:href="#Layer0_0_MEMBER_0_MEMBER_1_MEMBER_0_FILL"/>
</g>

<g transform="matrix( 1, 0, 0, 1, -1084.7,-867.7) ">
<use xlink:href="#Layer0_0_MEMBER_0_MEMBER_2_MEMBER_0_FILL"/>
</g>

<g transform="matrix( 1, 0, 0, 1, -1084.7,-867.7) ">
<use xlink:href="#Layer0_0_MEMBER_0_MEMBER_3_MEMBER_0_FILL"/>
</g>

<g transform="matrix( 1, 0, 0, 1, -1084.7,-867.7) ">
<use xlink:href="#Layer0_0_MEMBER_0_MEMBER_4_MEMBER_0_FILL"/>
</g>

<g transform="matrix( 1, 0, 0, 1, -1084.7,-867.7) ">
<use xlink:href="#Layer0_0_MEMBER_0_MEMBER_5_MEMBER_0_FILL"/>
</g>

<g transform="matrix( 1, 0, 0, 1, -1084.7,-867.7) ">
<use xlink:href="#Layer0_0_MEMBER_0_MEMBER_6_MEMBER_0_FILL"/>
</g>

<g transform="matrix( 1, 0, 0, 1, -1084.7,-867.7) ">
<use xlink:href="#Layer0_0_MEMBER_0_MEMBER_7_MEMBER_0_FILL"/>
</g>

<g transform="matrix( 1, 0, 0, 1, -1084.7,-867.7) ">
<use xlink:href="#Layer0_0_MEMBER_0_MEMBER_8_MEMBER_0_FILL"/>
</g>

<g transform="matrix( 1, 0, 0, 1, -1084.7,-867.7) ">
<use xlink:href="#Layer0_0_MEMBER_0_MEMBER_9_MEMBER_0_FILL"/>
</g>

<g transform="matrix( 1, 0, 0, 1, -1084.7,-867.7) ">
<use xlink:href="#Layer0_0_MEMBER_0_MEMBER_10_MEMBER_0_FILL"/>
</g>

<g transform="matrix( 1, 0, 0, 1, -1084.7,-867.7) ">
<use xlink:href="#Layer0_0_MEMBER_0_MEMBER_11_MEMBER_0_FILL"/>
</g>

<g transform="matrix( 1, 0, 0, 1, -1084.7,-867.7) ">
<use xlink:href="#Layer0_0_MEMBER_0_MEMBER_12_MEMBER_0_FILL"/>
</g>

<g transform="matrix( 1, 0, 0, 1, -1084.7,-867.7) ">
<use xlink:href="#Layer0_0_MEMBER_0_MEMBER_13_MEMBER_0_FILL"/>
</g>

<g transform="matrix( 1, 0, 0, 1, -1084.7,-867.7) ">
<use xlink:href="#Layer0_0_MEMBER_0_MEMBER_14_MEMBER_0_FILL"/>
</g>

<g transform="matrix( 1, 0, 0, 1, -1084.7,-867.7) ">
<use xlink:href="#Layer0_0_MEMBER_1_MEMBER_0_FILL"/>
</g>

<g transform="matrix( 1, 0, 0, 1, -1084.7,-867.7) ">
<use xlink:href="#Layer0_0_MEMBER_1_MEMBER_1_1_STROKES"/>
</g>

<g transform="matrix( 1, 0, 0, 1, -1084.7,-867.7) ">
<use xlink:href="#Layer0_0_MEMBER_2_FILL"/>
</g>
</svg>
